^C:\USERS\IVANP\ONEDRIVE\РАБОЧИЙ СТОЛ\АЛГОРИТМЫ\LAB_PALIY 1\TASK 2\TASK 2.CPP
C:\USERS\IVANP\ONEDRIVE\Рабочий стол\Алгоритмы\LAB_PALIY 1\TASK 2\DEBUG\VC142.PDB
C:\USERS\IVANP\ONEDRIVE\Рабочий стол\Алгоритмы\LAB_PALIY 1\TASK 2\DEBUG\VC142.IDB
C:\USERS\IVANP\ONEDRIVE\Рабочий стол\Алгоритмы\LAB_PALIY 1\TASK 2\DEBUG\TASK 2.OBJ
