^C:\USERS\IVANP\ONEDRIVE\РАБОЧИЙ СТОЛ\АЛГОРИТМЫ\LAB 1\TASK 4\TASK 4.CPP
C:\USERS\IVANP\ONEDRIVE\Рабочий стол\Алгоритмы\LAB 1\TASK 4\DEBUG\VC142.PDB
C:\USERS\IVANP\ONEDRIVE\Рабочий стол\Алгоритмы\LAB 1\TASK 4\DEBUG\VC142.IDB
C:\USERS\IVANP\ONEDRIVE\Рабочий стол\Алгоритмы\LAB 1\TASK 4\DEBUG\TASK 4.OBJ
^C:\USERS\IVANP\ONEDRIVE\РАБОЧИЙ СТОЛ\АЛГОРИТМЫ\LAB_PALIY 1\TASK 4\TASK 4.CPP
C:\USERS\IVANP\ONEDRIVE\Рабочий стол\Алгоритмы\LAB_PALIY 1\TASK 4\DEBUG\VC142.PDB
C:\USERS\IVANP\ONEDRIVE\Рабочий стол\Алгоритмы\LAB_PALIY 1\TASK 4\DEBUG\VC142.IDB
C:\USERS\IVANP\ONEDRIVE\Рабочий стол\Алгоритмы\LAB_PALIY 1\TASK 4\DEBUG\TASK 4.OBJ
