^C:\USERS\IVANP\ONEDRIVE\РАБОЧИЙ СТОЛ\АЛГОРИТМЫ\LAB 1\TASK 4\DEBUG\TASK 4.OBJ
C:\USERS\IVANP\ONEDRIVE\Рабочий стол\Алгоритмы\LAB 1\DEBUG\TASK 4.ILK
C:\USERS\IVANP\ONEDRIVE\Рабочий стол\Алгоритмы\LAB 1\DEBUG\TASK 4.EXE
C:\USERS\IVANP\ONEDRIVE\РАБОЧИЙ СТОЛ\АЛГОРИТМЫ\LAB 1\DEBUG\TASK 4.PDB
^C:\USERS\IVANP\ONEDRIVE\РАБОЧИЙ СТОЛ\АЛГОРИТМЫ\LAB_PALIY 1\TASK 4\DEBUG\TASK 4.OBJ
C:\USERS\IVANP\ONEDRIVE\Рабочий стол\Алгоритмы\LAB_PALIY 1\DEBUG\TASK 4.EXE
C:\USERS\IVANP\ONEDRIVE\Рабочий стол\Алгоритмы\LAB_PALIY 1\DEBUG\TASK 4.ILK
C:\USERS\IVANP\ONEDRIVE\РАБОЧИЙ СТОЛ\АЛГОРИТМЫ\LAB_PALIY 1\DEBUG\TASK 4.PDB
