^C:\USERS\IVANP\ONEDRIVE\РАБОЧИЙ СТОЛ\АЛГОРИТМЫ\LAB 1\TASK 4\DEBUG\TASK 4.OBJ
/OUT:"C:\USERS\IVANP\ONEDRIVE\РАБОЧИЙ СТОЛ\АЛГОРИТМЫ\LAB 1\DEBUG\TASK 4.EXE" /INCREMENTAL /NOLOGO KERNEL32.LIB USER32.LIB GDI32.LIB WINSPOOL.LIB COMDLG32.LIB ADVAPI32.LIB SHELL32.LIB OLE32.LIB OLEAUT32.LIB UUID.LIB ODBC32.LIB ODBCCP32.LIB /MANIFEST /MANIFESTUAC:"level='asInvoker' uiAccess='false'" /manifest:embed /DEBUG:FASTLINK /PDB:"C:\USERS\IVANP\ONEDRIVE\РАБОЧИЙ СТОЛ\АЛГОРИТМЫ\LAB 1\DEBUG\TASK 4.PDB" /SUBSYSTEM:CONSOLE /TLBID:1 /DYNAMICBASE /NXCOMPAT /IMPLIB:"C:\USERS\IVANP\ONEDRIVE\РАБОЧИЙ СТОЛ\АЛГОРИТМЫ\LAB 1\DEBUG\TASK 4.LIB" /MACHINE:X86 "DEBUG\TASK 4.OBJ"
^C:\USERS\IVANP\ONEDRIVE\РАБОЧИЙ СТОЛ\АЛГОРИТМЫ\LAB_PALIY 1\TASK 4\DEBUG\TASK 4.OBJ
/OUT:"C:\USERS\IVANP\ONEDRIVE\РАБОЧИЙ СТОЛ\АЛГОРИТМЫ\LAB_PALIY 1\DEBUG\TASK 4.EXE" /INCREMENTAL /NOLOGO KERNEL32.LIB USER32.LIB GDI32.LIB WINSPOOL.LIB COMDLG32.LIB ADVAPI32.LIB SHELL32.LIB OLE32.LIB OLEAUT32.LIB UUID.LIB ODBC32.LIB ODBCCP32.LIB /MANIFEST /MANIFESTUAC:"level='asInvoker' uiAccess='false'" /manifest:embed /DEBUG:FASTLINK /PDB:"C:\USERS\IVANP\ONEDRIVE\РАБОЧИЙ СТОЛ\АЛГОРИТМЫ\LAB_PALIY 1\DEBUG\TASK 4.PDB" /SUBSYSTEM:CONSOLE /TLBID:1 /DYNAMICBASE /NXCOMPAT /IMPLIB:"C:\USERS\IVANP\ONEDRIVE\РАБОЧИЙ СТОЛ\АЛГОРИТМЫ\LAB_PALIY 1\DEBUG\TASK 4.LIB" /MACHINE:X86 "DEBUG\TASK 4.OBJ"
