^C:\USERS\IVANP\ONEDRIVE\РАБОЧИЙ СТОЛ\АЛГОРИТМЫ\LAB_3\CONSOLEAPPLICATION1\CONSOLEAPPLICATION1.CPP
C:\USERS\IVANP\ONEDRIVE\Рабочий стол\Алгоритмы\LAB_3\CONSOLEAPPLICATION1\DEBUG\VC142.PDB
C:\USERS\IVANP\ONEDRIVE\Рабочий стол\Алгоритмы\LAB_3\CONSOLEAPPLICATION1\DEBUG\VC142.IDB
C:\USERS\IVANP\ONEDRIVE\Рабочий стол\Алгоритмы\LAB_3\CONSOLEAPPLICATION1\DEBUG\CONSOLEAPPLICATION1.OBJ
