^C:\USERS\IVANP\ONEDRIVE\РАБОЧИЙ СТОЛ\АЛГОРИТМЫ\LAB 1\TASK 3\DEBUG\TASK 3.OBJ
C:\USERS\IVANP\ONEDRIVE\Рабочий стол\Алгоритмы\LAB 1\DEBUG\TASK 3.ILK
C:\USERS\IVANP\ONEDRIVE\Рабочий стол\Алгоритмы\LAB 1\DEBUG\TASK 3.EXE
C:\USERS\IVANP\ONEDRIVE\РАБОЧИЙ СТОЛ\АЛГОРИТМЫ\LAB 1\DEBUG\TASK 3.PDB
^C:\USERS\IVANP\ONEDRIVE\РАБОЧИЙ СТОЛ\АЛГОРИТМЫ\LAB_PALIY 1\TASK 3\DEBUG\TASK 3.OBJ
C:\USERS\IVANP\ONEDRIVE\Рабочий стол\Алгоритмы\LAB_PALIY 1\DEBUG\TASK 3.EXE
C:\USERS\IVANP\ONEDRIVE\Рабочий стол\Алгоритмы\LAB_PALIY 1\DEBUG\TASK 3.ILK
C:\USERS\IVANP\ONEDRIVE\РАБОЧИЙ СТОЛ\АЛГОРИТМЫ\LAB_PALIY 1\DEBUG\TASK 3.PDB
