^C:\USERS\MADMA\SOURCE\REPOS\ALG_LAB6\ALG_LAB6\X64\DEBUG\ALG_LAB6.OBJ
/OUT:"C:\USERS\MADMA\SOURCE\REPOS\ALG_LAB6\X64\DEBUG\SHELLSORT.EXE" /INCREMENTAL /NOLOGO KERNEL32.LIB USER32.LIB GDI32.LIB WINSPOOL.LIB COMDLG32.LIB ADVAPI32.LIB SHELL32.LIB OLE32.LIB OLEAUT32.LIB UUID.LIB ODBC32.LIB ODBCCP32.LIB /MANIFEST /MANIFESTUAC:"level='asInvoker' uiAccess='false'" /manifest:embed /DEBUG:FASTLINK /PDB:"C:\USERS\MADMA\SOURCE\REPOS\ALG_LAB6\X64\DEBUG\SHELLSORT.PDB" /SUBSYSTEM:CONSOLE /TLBID:1 /DYNAMICBASE /NXCOMPAT /IMPLIB:"C:\USERS\MADMA\SOURCE\REPOS\ALG_LAB6\X64\DEBUG\SHELLSORT.LIB" /MACHINE:X64 X64\DEBUG\ALG_LAB6.OBJ
^C:\USERS\IVANP\ONEDRIVE\РАБОЧИЙ СТОЛ\АЛГОРИТМЫ\ALG_LAB6\ALG_LAB6\ALG_LAB6\X64\DEBUG\ALG_LAB6.OBJ
/OUT:"C:\USERS\IVANP\ONEDRIVE\РАБОЧИЙ СТОЛ\АЛГОРИТМЫ\ALG_LAB6\ALG_LAB6\X64\DEBUG\SHELLSORT.EXE" /INCREMENTAL /NOLOGO KERNEL32.LIB USER32.LIB GDI32.LIB WINSPOOL.LIB COMDLG32.LIB ADVAPI32.LIB SHELL32.LIB OLE32.LIB OLEAUT32.LIB UUID.LIB ODBC32.LIB ODBCCP32.LIB /MANIFEST /MANIFESTUAC:"level='asInvoker' uiAccess='false'" /manifest:embed /DEBUG:FASTLINK /PDB:"C:\USERS\IVANP\ONEDRIVE\РАБОЧИЙ СТОЛ\АЛГОРИТМЫ\ALG_LAB6\ALG_LAB6\X64\DEBUG\SHELLSORT.PDB" /SUBSYSTEM:CONSOLE /TLBID:1 /DYNAMICBASE /NXCOMPAT /IMPLIB:"C:\USERS\IVANP\ONEDRIVE\РАБОЧИЙ СТОЛ\АЛГОРИТМЫ\ALG_LAB6\ALG_LAB6\X64\DEBUG\SHELLSORT.LIB" /MACHINE:X64 X64\DEBUG\ALG_LAB6.OBJ
